Artist,Song,Spotify Track ID,Arousal,Valence,Tension,Dominance,Mood,Mood Weight,Categories Based on Sound,Categories Based on Lyrics
Luke Bryan,Suntan City,2HiXyVv2tfjIGJh02brVDY,7,7,1,8,Happy,Moderate,,Alcohol; Beaches & Islands; Boating; Outdoors; Pools & Spas; Swimwear; Traffic & Transit
Bruno Mars,When I Was Your Man,0nJW01T7XtvILxQgC5J7Wh,2,2,4,8,Tender,Moderate,,Bed & Bath; Depression; Flowers; Gifts; Relationship Issues; Romance
Mumford & Sons,I Will Wait,3kyxRga5wDGbKdmxXssbps,7,6,3,7,Tender,Strong,,Friendship; Relationship Issues; Religion & Belief; Romance
The Lumineers,Ho Hey,5BSndweF91KDqyxANsZcQH,3,3,3,7,Sad,Moderate,,Bed & Bath; Depression; Relationship Issues; Romance
Macklemore & Ryan Lewis,Thrift Shop - feat. Wanz,1CmUZGtH29Kx36C1Hleqlz,6,5,7,6,Happy,Moderate,,Celebrities; Cigarettes; Cleaning Services; Dance; Footwear
Miranda Lambert,Mama’s Broken Heart,0v1xRYqHE5N5bBi4db5RNR,6,3,7,6,Fear,Strong,,Alcohol; Cosmetics; Depression; Hair Care; Mental Health; Outerwear; Romance; Relationship Issues; Religion & Belief; Skin  & Nail Care
Of Monsters and Men,Little Talks,0uZ0orE84drZZzPKxCWSmR,7,3,6,4,Happy,Moderate,,Boating; Mental Health; Outdoors; Relationship Issues; Romance
Ed Sheeran,The A Team,6F25tznBMyPJpXx7Gj1ch0,3,2,1,5,Sad,Strong,,Cigarettes; Cosmetics; Food & Drink; Outdoors; Religion & Belief; Romance; Weather; Funerals
Bright Eyes,At The Bottom Of Everything,6588w3GdDxmdtLMLuwf1tO,6,7,8,7,Surprise,Moderate,,Food & Drink; Air Travel; Alcohol; Funeral; Autos & Vehicles; Religion & Belief; Sleep Disorders; Gardening; Beaches & Islands; Mobile & Wireless; Performing Arts; Running & Walking; Travel
Drive-By Truckers,Outfit,03azsiB9iVVMdvcrXEPtRt,3,1,3,5,Sad,Moderate,,Autos & Vehicles; Romance; Gifts; Religion & Belief; Home Improvement;
Eric Hutchinson,Rock & Roll,5RBx3tM9hmVJAOnSUHIWkn,6,6,6,7,Happy ,Moderate,,Alcohol; Cosmetics; Women's Clothing; Dance; Romance; Bed & Bath
R.E.M.,Nightswimming,67gLxgBMEpItXCsVTQ44DR,4,2,6,6,Sad,Moderate,,Autos & Vehicles; Outdoors; Weather; Pools & Spas; 
Ray LaMontagne,You Are The Best Thing,1jyddn36UN4tVsJGtaJfem,7,8,2,8,Happy,Strong,,Romance; Religion & Belief; 
Snow Patrol ,How To Be Dead,6nVo6FPQFFsT2nHZx5GBqV,3,2,6,5,Sad,Moderate,,Romance; Relationship Issues; Mental Health; Bed & Bath; Religion & Belief; Cigarettes
Louis Armstrong,What A Wonderful World,0X5AlhZuECn39CfLlSiQSZ,2,8,3,6,Happy,Moderate,,Outdoors; Flowers; Gardening; Romance; Friendship; Weather
Jennifer Warnes and Joe Cocker,Up Where We Belong,0Co8hKbjUy273NrGliGdWZ,3,6,3,6,Tender,Moderate,,Romance; Outdoors; Travel; Running & Walking; Air Travel; Weather
The Black Eyed Peas,I Gotta Feeling,4vp2J1l5RD4gMZwGFLfRAu,8,8,7,8,Happy,Strong,,Alcohol; Dance; Food & Drink
Katy Perry,Firework,4lCv7b86sLynZbXhfScfm2,8,7,6,7,Happy,Moderate,,Astrology; Astronomy; Weather; Romance
Prince & The New Power Generation,Nothing Compares 2 U,51P7H7uGYXryJFSle4S8Wp,3,5,3,5,Tender,Moderate,,
Radiohead,No Surprises,4uBzDO9wmPEXBKhfwAlMFJ,1,1,7,5,Sad,Strong,,
David Bowie,Space Oddity - 2009 Digital Remaster,3sb66av9ZpdI1JmPDHVa18,2,3,9,2,Sad,Moderate,,
The Smashing Pumpkins,Landslide,46jNNisjr8iE3jkNtrtWFl,2,3,2,6,Sad,Strong,,
Beck,Lost Cause,29i8axWOLDmgbiutJb9prB,2,2,3,6,Sad,Strong,,
Kelly Clarkson,Since U Been Gone,3xrn9i8zhNZsTtcoWgQEAd,8,6,6,8,Happy,Moderate,,
Beyonce,Irreplaceable,6RX5iL93VZ5fKmyvNXvF1r,6,5,3,6,Happy ,Moderate,,
Alanis Morissette,You Oughta Know,0Dw9z44gXhplDh5HCWZIxP,7,4,8,4,Angry,Strong,,
Sex Pistols,God Save The Queen,6ui6l3ZNvlrGQZArwo8195,5,3,9,3,Angry,Strong,,
Gloria Gaynor ,I Will Survive,2DX0WG5OGLQLaXb41Cq1IA,8,6,6,9,Happy,Strong,,
Wilco,Jesus etc.,4wd09wCccmxUB7XVJp0RNn,3,3,3,6,Sad,Moderate,,
Coldplay,The Scientist,75JFxkI2RXiU7L9VXzMkle,3,1,3,6,Sad,Strong,,
Jason Mraz,I’m Yours,1EzrEOXmMH3G43AXT1y7pA,6,8,2,6,Happy,Moderate,,
Linkin Park,Shadow Of The Day,0OYcEfskah1egYHjYRvbg1,4,3,7,5,Sad ,Strong,,
Sarah McLachlan,Angel,3xZMPZQYETEn4hjor3TR1A,2,3,1,6,Tender,Strong,,
Enya,Only Time - Original Version,3Otjx9ULpmWdUbkDTYDXHc,4,3,2,6,Tender,Strong,,
Rick Astley,Never Gonna Give You Up,0FutrWIUM5Mg3434asiwkp,8,7,4,7,Happy,Moderate,,
Sarah McLachlan,Full Of Grace,687LfKbMekzqGnPY7wn66V,3,2,2,6,Sad,Strong,,
Plain White T’s,Hey There Delilah,5kL8RzfCvFFzgTUbwPp8T6,4,5,4,5,Tender,Moderate,,
Five For Fighting,100 Years,5OVofGV3opkR1hq0C9RSCu,5,3,3,7,Sad,Moderate,,
Jason Mraz,Details in the Fabric,7EvZucbeXRDEwT4cFpHEi8,2,2,2,5,Sad,Moderate,,
Jimmy Buffett,Mental Floss,0BjkSCLEHlcsogSeDim01W,4,7,3,7,Happy,Moderate,,
Bon Jovi,Livin’ On A Prayer,7qQnBfwXrw2tZNFG4Uf57N,8,6,6,8,Happy,Moderate,,
Guns N’ Roses,Patience,5ESovjf8cOPtYanYJ26gKy,2,3,4,6,Sad,Moderate,,
Michael Jackson,Thriller,1D9KEXIrlmPUkMTdYzqgX4,7,6,7,4,Surprised,Moderate,,
Prince  ,Little Red Corvette,76Gmfksb2uBzx5N72DcHT0,6,6,7,4,Happy,Moderate,,
M.I.A.,Paper Planes,1kusepF3AacIEtUTYrw4GV,4,3,7,5,Sad,Moderate,,
Stealers Wheel,Stuck In The Middle With You,1b7LMtXCXGc2EwOIplI35z,6,6,3,7,Happy,Moderate,,
Randy Newman,Memo To My Son - Remastered LP Version,5Vw9sw0Tr4saqD2E75cZ1X,4,2,2,6,Sad,Moderate,,
OutKast,Hey Ya! - Radio Mix/Club Mix,3AszgPDZd9q0DpDFt4HFBy,8,7,6,7,Happy,Strong,,
Yazoo,Only You,62sTjrwZKzNjfeeBcG4nIv,4,5,5,5,Sad,Moderate,,
Rod Stewart,Maggie May,1r3kj1yMff7ilIsR7hpvUo,6,5,6,7,Happy/Angry,Moderate,,
Otis Redding,I’ve Been Loving You Too Long - To Stop Now,2kjIrEm75NMvwZ5Ta2KxUO,4,3,3,4,Sad,Moderate,,
Brendan Benson,Tiny Spark,7o5H7I6HX9qVrJH6DhvP6R,6,6,3,6,Happy,Moderate,,
Maroon 5,Daylight,5dkbjvKXEMacSPUSFK3FBb,8,7,3,7,Happy,Strong,,
Calvin Harris Florence Welch,Sweet Nothing,24LS4lQShWyixJ0ZrJXfJ5,8,7,3,8,Happy ,Strong,,
Demi Lovato,Heart Attack,25n4NECujqOxQHdXVIVc9I,8,8,3,8,Happy,Strong,,
Fun.,Carry On,7gpy7sfWPNuOKmUNs3XQYE,6,7,2,7,Happy,Moderate,,
P!nk,Try,1jF7IL57ayN4Ity3jQqGu0,7,6,4,7,Happy,Moderate,,
Lady Antebellum,Downtown,66u9s8Si6NPNdC3amR44RC,6,6,3,6,Happy/Angry,Moderate,,
Fall Out Boy,Sugar We’re Goin Down,2TfSHkHiFO4gRztVIkggkE,6,6,3,6,Angry,Moderate,,
Alabama Shakes,Hold On,7c13Xlndg43PnSzpHRD11d,6,6,3,5,Happy,Moderate,,
First Aid Kit,Emmylou,7sCg9vuIMFL4pXwqWHipEf,4,4,2,5,Sad,Moderate,,
Beach House,Other People,2Nt4Uw91pQLXSJ28SttDdF,2,3,4,5,Sad,Moderate,,
Japandroids,The House That Heaven Built,2dcmQJCw1INGn7yR2KHx0U,6,3,8,3,Angry,Strong,,
Metallica,Enter Sandman,1hKdDCpiI9mqz1jVHRKG0E,6,3,8,3,Angry,Strong,,
Beastie Boys,Paul Revere,3gKwVWwKmeuFtPubICbOGc,6,5,6,4,Happy/Angry,Moderate,,
JAY-Z,Empire State Of Mind [Jay-Z + Alicia Keys] - Explicit Album Version,69yVxyuRahEzs2taFMVVoO,7,6,4,7,Happy,Moderate,,
The Who,My Generation - Original Mono Version,7uDhxDSeMgt6QNsYhlw7OU,7,7,4,6,Happy,Strong,,
Aretha Franklin,Chain Of Fools,7jVNFF0E9Zm04J8ezjLuNq,6,4,3,7,Sad,Moderate,,
Pat Benetar,Hit Me With Your Best Shot - 2002 - Remaster,3ROZ4HEoNN92ZuPjf9J6fK,7,6,3,7,Happy,Moderate,,
Dusty Springfield,Son Of A Preacher Man,7odHgoLFi3GQ90E9PeraI3,5,7,3,6,Happy,Strong,,
Madonna ,Borderline - Remix,0WeATn9QzAPOyR53O3VDTJ,6,6,4,6,Happy ,Moderate,,
The Bangles,Hazy Shade Of Winter,0P2vAvvWni2tNXOdbH3JFk,7,4,6,5,Happy,Moderate,,
The Cars,Just What I Needed,4alHo6RGd0D3OUbTPExTHN,6,5,7,4,Happy ,Moderate,,
Cheap Trick,I Want You To Want Me - Live At Budokan: The Complete Concert,6nNlQuEGW3JV4dk88PB9PU,7,7,5,6,Happy,Strong,,
Blondie,Heart Of Glass,0a4agFmqHXxcZl1nho1BxM,5,6,5,5,Happy ,Moderate,,
The Buggles,Video Killed The Radio Star,6t1FIJlZWTQfIZhsGjaulM,7,6,5,6,Happy,Moderate,,
Rihanna,Diamonds,1mwt9hzaH7idmC5UCoOUkz,7,4,4,5,Tender,Moderate,,
The Script will.i.am,Hall of Fame,7wMq5n8mYSKlQIGECKUgTX,8,6,4,8,Happy,Moderate,,
Imagine Dragons,It’s TIme,6BtmXhTJMM9sBTHeYYASGz,7,5,4,7,Happy ,Moderate,,
Arcade Fire,Keep The Car Running,7ih3xgmlmY9P4NkzZTyPe2,6,4,8,5,Angry,Moderate,,
Bat For Lashes,Daniel,72Z3omkingFSu6Qvo7EkLh,3,2,7,4,Sad,Strong,,
Blind Melon,No Rain - 2002 - Remastered,4ptSL1o2pRgNvrC4wsN1Pl,6,6,4,6,Happy ,Moderate,,
The Breeders,Cannonball,1pQFd3NNFOQ1rZzCPXgKyv,5,3,7,4,Angry ,Strong,,
The Cult ,She Sells Sanctuary,66glXjjFvlS5r1gDUK4ugq,6,4,7,6,Angry,Moderate,,
The Cure ,Love Song,0xSdvfaloELWulSoH67IYD,4,4,6,4,Tender,Moderate,,
Echo And The Bunnymen,Bring On The Dancing Horses,0yTQXOVCrAobH0zUOpdUrm,4,4,7,4,Sad,Strong,,
Faith No More,Epic,1mgOrB9q0nZW9mx6DlXAaC,3,2,9,2,Angry,Strong,,
Florence + The Machine,Dog Days Are Over,4Jm1ZaOPZcVb2UGvYqR7W0,6,4,7,5,Sad,Moderate,,
The Flaming Lips,Do You Realize??,2DFRFqWNahKtFD112H2iEZ,4,3,4,5,Sad,Moderate,,
Foo Fighters,The Pretender,3ZsjgLDSvusBgxGWrTAVto,5,4,8,4,Angry,Sad,,
Green Day,Wake Me Up When September Ends,3ZffCQKLFLUvYM59XKLbVm,4,2,4,5,Sad,Strong,,
Jane’s Addiction,Been Caught Stealing,4Qievb8Mqy0qxdLNVl02zt,4,3,7,3,Angry,Sad,,
Jimmy Eat World,The Middle,2D7tauy2bntJnJQ2C4rO4x,6,6,6,6,Happy,Moderate,,
Jose Gonzalez,Heartbeats,4CfVsCfa1fIYTb314gpXT9,2,2,3,5,Sad,Strong,,
Keane,Somewhere Only We Know,0VxFKXvKLjYWU7oPPMwzuN,5,3,6,6,Sad,Strong,,
The Killers,Mr. Brightside,4ZefAE6wZ6BEATniPk4DWI,7,4,6,7,Happy,Strong,,
Kings Of Leon,Sex On Fire,395C2pn0PdOYPzM4B1jLoO,7,6,6,6,Happy,Moderate,,
The Kinks,You Really Got Me,4rKXPT9Vw1k9c7fldZbDWj,7,6,6,6,Happy,Strong,,
Modest Mouse,Float On,2lwwrWVKdf3LR9lbbhnr6R,5,4,6,5,Happy,Moderate,,
Morrissey,Everyday Is Like Sunday,5GW9uHrOdmoXzX3umscu7u,4,3,4,5,Sad,Moderate,,
New Order,Bizarre Love Triangle,4kNfh9In8hjuuERSZhwTTx,5,5,5,6,Tender,Moderate,,
Nirvana,Smells Like Teen Spirit,4hy4fb5D1KL50b3sng9cjw,5,4,8,4,Angry,Moderate,,
Oasis,Wonderwall,3nV3zKrWBuDcCYjju4LkNp,6,5,5,5,Happy,Moderate,,
Pearl Jam,Jeremy,108lyj5gobzMHWoA2x78B1,5,3,7,3,Angry,Strong,,
Pixies,Here Comes Your Man,2gxVXDvyR5uk99RUysqjFb,6,6,5,5,Happy,Moderate,,
Queens Of The Stone Age,No One Knows,5VVuxxuQIJD0pjjFls1DKL,5,4,7,4,Angry,Moderate,,
Vampire Weekend,Cape Cod Kwassa Kwassa,7q4MJZSiqPC16dbhQWxugv,6,6,5,6,Happy,Moderate,,
Fleetwood Mac,What Makes You Think You’re The One,4gsj40f88ntL51AYmkOfyW,5,4,6,4,Happy,Moderate,,
Marvin Gaye,What’s Going On,0Fjo3sf8HThtmJtTLDdK2e,5,6,3,6,Tender,Strong,,
Four Tops,Bernadette,4y9T6OmBrIvFSOytjuSy2t,6,5,4,6,Happy,Moderate,,
Sigur Ros,Ny Batteri,5Fa8pYCjmI5hvIYwObjRn3,4,4,6,5,Sad,Moderate,,
Shannon Wright,Commoner’s Saint,78GpDjXln2xXKrVyVsz1Rn,5,3,8,4,Sad,Moderate,,
Brian Eno,1/1,3bCmDqflFBHijgJfvtqev5,1,3,1,5,Tender,Moderate,,
Brian Eno,Deep Blue Day,50mL6pbI0uI6YX1xbSer7g,2,5,3,5,Happy,Moderate,,
Feist,1234,49CP2usyaN98EdtrOWXnal,4,6,3,6,Happy,Moderate,,